Pivot tables
…
We used mean() to calculate the mean size of lobsters by each site and year, and used na.rm = TRUE to calculate mean despite having missing values in our raw data

siteyear_summary <- lobsters %>% 
  group_by(site, year) %>% 
  summarize(count_by_siteyear = n(), 
            mean_size_mm = mean(size_mm, 
                                na.rm = TRUE), 
            sd_size_mm = sd(size_mm, 
                            na.rm = TRUE))

# assign to a variable
siteyear_summary

## # A tibble: 35 x 5
## # Groups:   site [5]
##    site   year count_by_siteyear mean_size_mm sd_size_mm
##    <chr> <dbl>             <int>        <dbl>      <dbl>
##  1 aque   2012                38         71        10.2 
##  2 aque   2013                32         72.1      12.3 
##  3 aque   2014               100         76.9       9.32
##  4 aque   2015                83         68.5      12.6 
##  5 aque   2016                48         68.7      12.5 
##  6 aque   2017                67         73.9      11.9 
##  7 aque   2018                54         71.7       8.14
##  8 carp   2012                78         74.4      14.6 
##  9 carp   2013                93         76.6       8.71
## 10 carp   2014                79         79.1       8.57
## #  with 25 more rows
Activity

Calculate the median size_mm (?median)

Create and ggsave() a plot

median_summary <- lobsters %>% 
  group_by(site, year) %>% 
  summarize(count_by_siteyear = n(), 
            median_size_mm = median(size_mm, 
                                na.rm = TRUE))

median_summary

## # A tibble: 35 x 4
## # Groups:   site [5]
##    site   year count_by_siteyear median_size_mm
##    <chr> <dbl>             <int>          <dbl>
##  1 aque   2012                38           70  
##  2 aque   2013                32           75  
##  3 aque   2014               100           75.5
##  4 aque   2015                83           70  
##  5 aque   2016                48           71  
##  6 aque   2017                67           75  
##  7 aque   2018                54           72  
##  8 carp   2012                78           74.5
##  9 carp   2013                93           76  
## 10 carp   2014                79           79  
## #  with 25 more rows
…
